{
  "name": "innogames-clickhouse",
  "version": "0.1.1",
  "author": "InnoGames GmbH",
  "summary": "Module to install and configure clickhouse server and client",
  "license": "MIT",
  "source": "http://github.com/innogames/puppet-clickhouse",
  "project_page": "http://github.com/innogames/puppet-clickhouse",
  "issues_url": "https://github.com/innogames/puppet-clickhouse/issues",
  "dependencies": [
    {
      "name": "innogames-xmlsimple",
      "version_requirement": ">= 0.1.1 <1.0"
    },
    {
      "name": "puppetlabs-stdlib",
      "version_requirement": ">= 4.20.0 <5.2.0"
    }
  ],
  "operatingsystem_support": [
    {
      "operatingsystem": "CentOS",
      "operatingsystemrelease": [
        "6",
        "7"
      ]
    },
    {
      "operatingsystem": "OracleLinux",
      "operatingsystemrelease": [
        "6",
        "7"
      ]
    },
    {
      "operatingsystem": "RedHat",
      "operatingsystemrelease": [
        "6",
        "7"
      ]
    },
    {
      "operatingsystem": "Scientific",
      "operatingsystemrelease": [
        "6",
        "7"
      ]
    },
    {
      "operatingsystem": "Debian",
      "operatingsystemrelease": [
        "8",
        "9"
      ]
    },
    {
      "operatingsystem": "Ubuntu",
      "operatingsystemrelease": [
        "16.04",
        "18.04"
      ]
    }
  ],
  "requirements": [
    {
      "name": "puppet",
      "version_requirement": ">= 4.7.0 <= 6.0.0"
    }
  ],
  "description": "These module provides an easy way to install and configure the clickhosue-server. It requires for 'xml-simple' gem",
  "pdk-version": "1.8.0",
  "template-url": "file:///home/felixoid/OPT/Felixoid/github/Felixoid/pdk-templates",
  "template-ref": "heads/master-0-g705154d"
}